{
"frames": [
	{
		"filename": "p_ice1.png",
		"frame": {"x":0, "y":32, "w":25, "h":19},
		"trimmed": "true",
		"spriteSourceSize": {"x":0,"y":0,"w":25,"h":19},
		"sourceSize": {"w":25,"h":19}
	},
	{
		"filename": "p_ice2.png",
		"frame": {"x":29, "y":0, "w":13, "h":12},
		"trimmed": "true",
		"spriteSourceSize": {"x":0,"y":0,"w":13,"h":12},
		"sourceSize": {"w":13,"h":12}
	},
	{
		"filename": "p_ice3.png",
		"frame": {"x":0, "y":0, "w":28, "h":31},
		"trimmed": "true",
		"spriteSourceSize": {"x":0,"y":0,"w":28,"h":31},
		"sourceSize": {"w":28,"h":31}
	},
	{
		"filename": "p_ice4.png",
		"frame": {"x":26, "y":32, "w":18, "h":21},
		"trimmed": "true",
		"spriteSourceSize": {"x":0,"y":0,"w":18,"h":21},
		"sourceSize": {"w":18,"h":21}
	}

],
"meta": {
	"image": "main.png",
	"size": {"w": 64, "h": 64},
	"scale": "1"
}
}